<?xml version="1.0" encoding="UTF-8"?>
<svg width="73px" height="50px" viewBox="0 0 73 50" version="1.1" xmlns="http://www.w3.org/2000/svg" xmlns:xlink="http://www.w3.org/1999/xlink">
    <!-- Generator: Sketch 48.2 (47327) - http://www.bohemiancoding.com/sketch -->
    <title>icon_newsletter</title>
    <desc>Created with Sketch.</desc>
    <defs>
        <rect id="path-1" x="0" y="0" width="73" height="50" rx="4"></rect>
    </defs>
    <g id="Home" stroke="none" stroke-width="1" fill="none" fill-rule="evenodd" transform="translate(-144.000000, -2958.000000)">
        <g id="icon_newsletter" transform="translate(144.000000, 2958.000000)">
            <mask id="mask-2" fill="white">
                <use xlink:href="#path-1"></use>
            </mask>
            <g id="Mask"></g>
            <path d="M4.5,4.5 L35.5,27.5" id="Line-3" stroke="#333333" stroke-width="4" stroke-linecap="round" mask="url(#mask-2)"></path>
            <path d="M35.5,27.5 L68.5,4.5" id="Line-4" stroke="#333333" stroke-width="4" stroke-linecap="round" mask="url(#mask-2)"></path>
            <rect id="Rectangle-13" stroke="#333333" stroke-width="4" mask="url(#mask-2)" x="2" y="2" width="69" height="46" rx="4"></rect>
        </g>
    </g>
</svg>